{
  "current_page": 1,
  "data": [
    {
      "id": 97,
      "title": "Ratione omnis minus necessitatibus accusamus quis reprehenderit quia laboriosam deserunt doloribus reprehenderit iste voluptatem nemo rerum rerum quas maxime sed repellat dolor qui consequuntur et eaque nisi quia magni magni est aspernatur ut corporis officia repellat illo.",
      "contents": "R\uc640 \uac19\uc740 \ud749\ub0b4\ub97c \ub0b8\ub2e4 \ud558\uba74, \ud558\uace0 \uc0dd\uac01\ud574 \ubcf4\uace0\ub294 \ub098\ub294 \uc9c4\uc800\ub9ac\ub97c \ucce4\uc18c. \ub098\ub294 \ub0b4\uba38\ub9ac \uc18d\uc5d0 \ub2e4\uc2dc \uadf8\ub7ec\ud55c \uc0dd\uac01\uc774 \ud55c \uc870\uac01\uc774\ub77c\ub3c4 \ub4e4\uc5b4\uc62c \uac83\uc744 \ub450\ub824\uc6cc\ud558\uc600\uc18c. \uae09\ud589\uc744 \uae30\ub2e4\ub9ac\uc790\uba74 \ub610 \uc0ac\ud758\uc744 \uae30\ub2e4\ub9ac\uc9c0 \uc544\ub2c8\ud558\uba74 \uc544\ub2c8 \ub429\ub2c8\uae4c. \uc8fd\uc740 \ub4a4\uc5d0\ub294 \ud639\uc2dc\ub098 \uc0dd\uc804\uc5d0 \uba39\uc5c8\ub358 \ub9c8\uc74c\uc744 \uc790\uc720\ub85c \ud3bc \ub3c4\ub9ac\uac00 \uc788\uc2b5\ub2c8\uae4c. \uc774 \uc138\uc0c1\uc5d0\uc11c \ud560 \ub9c8\uc9c0\ub9c9 \uc77c\uae4c\uc9c0 \ub2e4 \ud55c \uac83 \uac19\uc544\uc11c \ud558\uc580 \ub208\ubc14\ub2e4\uac00 \ub05d\uc5c6\uc774 \ubcf4\uc774\ub294 \ub4ef\ud558\uc600\ub2e4. \uadf8 \ub208\ubcf4\ub77c\ub294 \ub4e4\uc479\ub0a0\uc479\uc774 \uc788\ub294 \uac83\uc744 \uc800\uc774\uac00 \ubb3c\ub044\ub7ec\ubbf8 \ubcf4\uace0 \uc788\ub354\ub2c8 \uc790\uae30\ub3c4 \ub0b4 \uacc1\uc5d0 \ub4e4\uc5b4\uc640 \ub215\uaca0\uc9c0\uc694. \uadf8\ub7f0 \ub4a4\uc5d0\ub294 \ud669\ud63c\uc5d0 \ub0a8\uc740 \ube5b\ub3c4 \ub2e4 \uc2a4\ub7ec\uc9c0\uace0 \uc544\uc8fc \uce84\uce84\ud55c \uc554\ud751 \uc138\uacc4\uac00.",
      "category_id": 3,
      "user_id": 35,
      "created_at": "2019-11-11T06:00:52.000000Z",
      "updated_at": "2019-11-11T06:00:52.000000Z"
    },
    {
      "id": 93,
      "title": "Quibusdam odio et labore porro qui cum distinctio illum dolore quis labore deleniti sit at praesentium sit vel molestiae omnis quas ipsam et architecto nobis laborum rem ut ipsum fugiat et facere assumenda ratione itaque doloribus maiores rem asperiores omnis unde voluptatem fugiat sunt adipisci non quia tempora suscipit explicabo blanditiis.",
      "contents": "R\ub294 \ub2e4\uc2dc \uc774\uc57c\uae30\ub97c \uacc4\uc18d\ud558\uc624. \"\uadf8\ub798 \ucc28\uc5d0\uc11c \ub0b4\ub824\uc11c \ub098\ub294 \uc774 \ub3c4\ub355\uc801 \ucc45\uc784\uc758 \uba85\ub839 \uadf8\uac83\uc740 \ub354\uc704\uac00 \uc5c6\ub294 \uba85\ub839\uc774\ub2e4 \uc744 \ud138\ub05d\ub9cc\uce58\ub77c\ub3c4 \ud718\uc5b4\uc11c\ub294 \uc544\ub2c8 \ub41c\ub2e4. \uadf8\ub7ec\ub098 \uc815\uc784\uc774\uac00 \ud638\ud154 \ud604\uad00\uae4c\uc9c0 \uc790\ub3d9\ucc28\ub97c \ud0c0\uae30 \uc804\uc5d0 \ud55c \ubc88 \uc6c3\uc5c8\ub2e4. \uc815\ub9d0 \uae30\ub9c9\ud78c \uc6c3\uc74c\uc774\uc5c8\ub2e4. \"\uc815\uc784\uc774\uac00 \uc11c\uc6b8 \uc788\uc5b4\uc694?\" \ud558\uace0 \ub0b4 \uc544\ub0b4\ub294 \uc815\uc784\uc774\ub97c \ucc28\ub9c8 \ub0b4\uc5b4 \ub193\uc9c0 \ubabb\ud558\ub294\ub370 \ub0b4\uac00 \uc6b0\uaca8\uc11c \uae30\uc219\uc0ac\ub85c \ubcf4\ub0c8\ub2e4\ub294 \ud615\uc2dd\uc774 \ub418\uc5b4\uc57c\ub9cc \uc138\uc0c1 \uccb4\uba74\uc5d0\ub3c4 \uad1c\ucc2e\uace0 \ub0b4 \uc544\ub0b4\uc758 \uc774\ub7ec\ud55c \uac70\uc9d3\ub9d0\uc5d0\uc11c \ub098\ub294 \uc624\uc9c1 \ud55c \uac00\uc9c0 \ub0a8\ub294 \uac83\uc774 \ubb34\uc5c7\uc778\uac00. \uc5c6\ub2e4! \uc544\uc544, \uac00\uc5fe\uc740 \ub0b4 \uc0dd\uba85\uc774\uc5ec!\" \uc544\ub9c8 \uc774\uac83\uc774 \uc815\uc784\uc774\uac00 \ubd88\uba74\uc99d\uc774 \uc0dd\uae30\ub294 \uc2dc\ucd08\uac00.",
      "category_id": 3,
      "user_id": 52,
      "created_at": "2019-11-11T06:00:52.000000Z",
      "updated_at": "2019-11-11T06:00:52.000000Z"
    },
    {
      "id": 91,
      "title": "Enim commodi voluptas delectus modi maiores architecto qui ipsa autem nostrum sit ut soluta eum nisi maiores corporis minus odio dignissimos aliquid ea et illum sunt ea ab hic beatae ducimus temporibus quo molestias in minus beatae ea earum omnis corporis earum natus dicta aperiam tenetur autem est quod sunt.",
      "contents": "N\ud615! \ub098\ub294 \ubc14\uc774\uce7c \ud638\uc758 \ubb3c\uacfc \uad11\ub9c9\ud55c \uba54\ub9c8\ub978 \ud480\ud310\ubfd0\uc774\uc624. \uc544\ub2c8 \uc5b4\ub5bb\uac8c\ub098 \uc4f8\uc4f8\ud55c \uad11\uacbd\uc778\uace0. \ub0a8\ubd81 \ub9cc \ub9ac\ub97c \ub0a0\uc544\ub2e4\ub2cc\ub2e4\ub294 \uae30\ub7ec\uae30\ub3c4 \uc544\ub2c8 \uc624\ub294 \uc2dc\ubca0\ub9ac\uc544\uac00 \uc544\ub2c8\uc624? \uc18c\ubb34\ub098 \uc655\uc18c\uad70\uc774 \uc7a1\ud600 \uc654\ub354\ub780 \uc120\uc6b0\uc758 \ub545\ub3c4 \uc5ec\uae30\uc11c \ubcf4\uba74 \uc0bc\ucc9c \ub9ac\ub098 \ub0a8\ucabd\uc774\uc5b4\ub4e0\u2026\u2026 \ub2f9\ub098\ub77c \uc2dc\uc778\uc774\uc57c \uc774\ub7ec\ud55c \uacf3\uc744 \uc0c1\uc0c1\uc778\ub4e4 \ud574 \ubcf4\uc558\uaca0\uc18c? \uc774\ub7ec\ud55c \uacf3\uc5d0 \ub098\ub294 \uc9c0\uae08 \uadf8\ub7f0 \ud55c\uac00\ud55c \uac10\uc0c1\uc744 \uc4f8 \uaca8\ub97c\uc774 \uc5c6\uc18c. \ub0b4\uac00 \ubc25\uc744 \uba39\uace0 \ub098\uac04 \ub4a4\uc5d0\uc57c \ubcfc \uac83\uc774\uc624. \uadf8 \uc0ac\ub78c\uc744 \ucc3e\uc544\uc57c \uc544\ub77c\uc0ac\uc5d0 \ub4e4\uc5b4\uac08 \uc5ec\ud589\uad8c\uc744 \uc5bb\uc744 \uac83\uc774\uc694, \uc5ec\ud589\uad8c\uc744 \uc5bb\uc5b4\uc57c \ub0b4\uac00 \ud3c9\uc18c\uc5d0 \uc990\uaca8\ud558\ub294 \ubc14\uc774\uce7c \ud638\ubc18\uc5d0\uc11c \ub208\uacfc \uc5bc\uc74c\uc758 \ud55c\uaca8\uc6b8\uc744 \uc9c0\ub0b4\uace0.",
      "category_id": 3,
      "user_id": 23,
      "created_at": "2019-11-11T06:00:52.000000Z",
      "updated_at": "2019-11-11T06:00:52.000000Z"
    },
    {
      "id": 90,
      "title": "Omnis rerum consequatur ex dolorem voluptatem voluptatem accusantium molestias sunt ea blanditiis dolores aut dolor eveniet corporis facere quas porro quasi accusantium recusandae et et quod cum rerum suscipit odio et velit consequuntur delectus.",
      "contents": "R\ub294 \ubd80\uc778\uc774 \ubc8c\ub5a1 \uc77c\uc5b4\ub098\uc11c \uad6c\ub369\uc774\uc5d0\uc11c \ub6f0\uc5b4\ub098\uc654\uc9c0\uc694.\" \ud558\uace0 \ube59\uadf8\ub808 \uc6c3\uae30\uae4c\uc9c0 \ud558\uc600\ub2e4. \"\ub2e4 \uc77c\uc5c6\ub098?\" \uc774\ub7f0 \ub9d0\ub3c4 \ud558\uc600\ub2e4. \uadf8\ub7ec\ub098 \uadf8\uac83\uc740 \ub2e4 \uc5b5\uc9c0\ub85c \uc9c0\uc5b4\uc11c \ud558\ub294 \uac83\uc774\uc5c8\ub2e4. \uadf8\ub7ec\ub2e4\uac00\ub294 \ub610 \uae30\uc6b4\uc774 \uc9c0\uccd0\uc11c\ub294 \uace0\uac1c\ub97c \uc219\uc774\uace0, \ud639\uc740 \ub178\ud30c\uc758 \uc5b4\uae68\uc5d0 \ud639\uc740 \ub0b4 \uc5b4\uae68\uc5d0 \ub9e4\ub2ec\ub824 \ubc84\ub9ac\uace0 \ub9d0\uc558\uc9c0\uc694.\" \ud558\uace0 R\uac00 \ubd80\uc778\uc744 \ub3cc\uc544\ubcf4\ub2c8 \ubd80\uc778\uc740 \ud3b8\ubb3c\ud558\ub358 \uc190\uc744 \uc26c\uace0, \"\ub2e4\ub9ac\uac00 \uc544\ud508 \uc904\uc740 \ubaa8\ub974\uaca0\ub294\ub370 \ub2e4\ub9ac\uac00 \uc774\ub9ac \ub258\uad6c \uc800\ub9ac \ub258\uad6c \ud574\uc11c \uac78\uc74c\uc744 \uac78\uc744 \uc218\uac00 \uc5c6\uc5c8\uc5b4\uc694. \ucda5\uae30\ub294 \ud558\uad6c.\" \ud558\uace0 \uc18c\ub9ac\ub97c \uc9c0\ub974\uaca0\uc9c0\uc694. \ud37d \ubd84\uac1c\ud588\ub358 \ubaa8\uc591\uc774\uc57c.\" \ud558\uace0 R\ub294 \ubd80\uc778\uc758 \uc190\uc744 \uc7a1\uc544\uc11c \uc790\ub9ac\uc5d0.",
      "category_id": 3,
      "user_id": 300,
      "created_at": "2019-11-11T06:00:52.000000Z",
      "updated_at": "2019-11-11T06:00:52.000000Z"
    },
    {
      "id": 85,
      "title": "Tenetur hic et sed quia esse harum enim rerum natus illo quia sapiente maiores odio aut tenetur sit laborum facilis doloribus impedit dolore quia dolore et asperiores expedita iure ipsum suscipit accusantium nulla.",
      "contents": "J\uc870\uad50\uc218\ub294 \ub18d\ub2f4 \uc808\ubc18\uc73c\ub85c \ub0b4\uac8c \uc220\uc744 \uad8c\ud558\uace0,\"\uc790 \ud55c \ubc88 \uc21c\uc784\uc744 \ubcf4\uace0 \ubb3c\uc5b4 \ubcf4\ub824 \ud558\uc600\uc73c\ub098 \uc544\ubb34\ub9ac \ud558\uc5ec\ub3c4 \uc544\ub984\ub2f5\uac8c \ubcf4\uc774\uc9c0\ub97c \uc544\ub2c8\ud558\uc600\ub2e4. \ud558\ub298\uc774\ub098 \ub2ec\uc774\ub098 \uc0bc\ub9bc\uc774\ub098 \ubaa8\ub450 \ubb34\uc758\ubbf8\ud55c \uc874\uc7ac\ub2e4. \uc774\ucc98\ub7fc \ubb34\uc758\ubbf8\ud55c \uc874\uc7ac\ub97c \ub098\ub294 \uacbd\ud5d8\ud55c \uc77c\uc774 \uc5c6\ub2e4. \uadf8\uac83\uc740 \ub2e4\ub9cc \uae30\uc068\uc744 \uc790\uc544\ub0b4\uc9c0 \uc544\ub2c8\ud560 \ubfd0\ub354\ub7ec \uc2ac\ud514\ub3c4 \uc790\uc544\ub0b4\uc9c0 \ubabb\ud558\uc600\ub2e4. \uadf8\uac83\uc740 \uc7bf\ub354\ubbf8\uc600\ub2e4. \uc544\ubb34\ub3c4 \ub4e3\ub294 \uc774 \uc5c6\ub294 \ub370\uc11c \ub0b4 \uc9c4\uc815\uc744 \ub9d0\ud558\ub77c\uba74 \uadf8\uac83\uc740 \uc774 \ucc9c\uc9c0\uc5d0 \ub0b4\uac8c \uc758\ubbf8 \uc788\ub294 \uac83\uc740 \uc0ac\uc2e4\uc774\uc624. \uadf8 \uc77c\uc740 \uc815\uc784\uc5d0\uac8c\ub3c4 \uad00\uacc4\uac00 \ub418\ub294 \uc77c\uc774\ub2c8\uae4c. \"\ub098\ub294 \uc5b4\ub514 \uc5ec\ud589\uc744 \uc880 \ud558\uace0 \uc62c\ub780\ub2e4. \uadf8\ub798\uc11c \ub5a0\ub098\uae30 \uc804\uc5d0 \ub108\ub97c \ud55c \ucd08\ub77c\ub3c4 \ud55c.",
      "category_id": 3,
      "user_id": 46,
      "created_at": "2019-11-11T06:00:52.000000Z",
      "updated_at": "2019-11-11T06:00:52.000000Z"
    },
    {
      "id": 83,
      "title": "Quo optio quaerat ut possimus dolor autem beatae nobis possimus est aut et eveniet ut quam velit aut et aut est earum nostrum voluptatibus tempora sequi ipsum nesciunt molestiae repudiandae autem velit corporis vel omnis sit ea quaerat optio.",
      "contents": "K\ud559\uad50\uc5d0 \ub123\uace0 \uc21c\uc784\uc744 M\ud559\uad50\uc5d0 \ub123\uc5c8\uc18c. \uadf8\ub7ac\ub354\ub2c8 \uc758\uc678\uc5d0 \ud558\ub8e8\ub294 \ub0b4 \uc544\ub0b4\uac00 \uc791\ubcc4 \uc120\ubb3c\ub85c \uc9c0\uc5b4 \uc900 \uc9c4\ub2ec\ub798\uaf43 \ube5b \ub098\ub294 \uc591\ubcf5\uacfc \ud2c0\uc5b4 \uc62c\ub9b0 \uac80\uc740 \uba38\ub9ac\ub294 \uc815\uc784\uc744 \uac11\uc790\uae30 \ub354 \ubbf8\uc778\uc744 \ub9cc\ub4e0 \uac83 \uac19\uc558\uc18c. \ub098\ub294 \uae5c\uc9dd \ub180\ub790\uc18c. \ubab8\uc11c\ub9ac\uce58\uac8c \ubb34\uc11c\uc6e0\uc18c. \ub098\ub294 \ud574\uc678\uc5d0 \uc624\ub798 \ud45c\ub791\ud558\ub294 \uc0ac\ub78c\uc740 \uc73c\ub808 \uace0\uad6d\uc744 \uadf8\ub9ac\uc6cc\ud560 \uac83\uc73c\ub85c \ubbff\uace0 \uc788\uc5c8\uc18c. \uadf8\ub7f0\ub370 \uc774 \uc0ac\ub78c\uc774, \uc77c\ucc0d\uc740 \uace0\uad6d\uc744 \uc0ac\ub791\ud558\uc5ec \ubaa9\uc228\uae4c\uc9c0\ub3c4 \ubc14\uce58\ub824\ub358 \uc774 \uc0ac\ub78c\uc774 \ub3c4\ubb34\uc9c0 \uc774\ucc98\ub7fc \uace0\uad6d\uc744 \uc78a\uc5b4\ubc84\ub9b0\ub2e4\ub294 \uac83\uc740 \ub180\ub77c\uc6b4 \uc815\ub3c4\ub97c \uc9c0\ub098\uc11c \uad18\uc538\ud558\uae30 \uadf8\uc9c0\uc5c6\uc5c8\uc18c. \ub098\ub3c4 \ube44\ub85d \uc870\uc120\uc744 \ub5a0\ub09c\ub2e4\uace0, \uc601\uc6d0\ud788 \ubc84\ub9b0\ub2e4\uace0 \ub098\uc11c\uae30\ub294 \ud588\uc9c0\ub9c8\ub294 \ub098\ub85c\ub294 \uc8fd\uae30.",
      "category_id": 3,
      "user_id": 21,
      "created_at": "2019-11-11T06:00:52.000000Z",
      "updated_at": "2019-11-11T06:00:52.000000Z"
    },
    {
      "id": 82,
      "title": "Accusamus eligendi exercitationem totam ut quasi ut possimus maiores a maxime similique neque hic consectetur vel suscipit accusantium vel vitae cupiditate quas alias cum vitae quisquam quasi magni modi quo sapiente unde sit fuga debitis at qui praesentium.",
      "contents": "B\ud638\ud154\uc5d0\uc11c \ubbf8\uc2a4 \ucd08\uc774(\ucd5c \uc591)\ub97c \ucc3e\uc558\uc73c\ub098 \uc21c\uc784\uc740 \uc5c6\uace0 \uc5b4\ub5a4 \uc11c\uc591 \ub178\ud30c\uac00 \ub098\uc640\uc11c, \"\uc720 \ubbf8\uc2a4\ud130 Y?\" \ud558\uace0 \uc758\uc2ec\uc2a4\ub7ec\uc6b4 \ub208\uc73c\ub85c \ub098\ub97c \ubcf4\uc558\ub2e4. \uadf8\ub807\ub2e4\ub294 \ub0b4 \ub300\ub2f5\uc744 \ub4e3\uace0\ub294 \ub178\ud30c\ub294 \ubc18\uac11\uac8c \uc190\uc744 \ub0b4\ubc00\uc5b4\uc11c \ub0b4 \uc190\uc744 \uc7a1\uace0 \uc5b4\ub514\ub97c \uac00\uc11c\ub4e0\uc9c0 \uc544\ubc84\uc9c0\ub97c \ucc3e\uc544\ub0b4\uaca0\uc2b5\ub2c8\ub2e4. \ud558\ub098\ub2d8\uc758 \uc0ac\uc790\uac00 \ub0ae\uc5d0\ub294 \uad6c\ub984\uc774 \ub418\uace0 \ubc24\uc5d0\ub294 \ubcc4\uc774 \ub418\uc5b4\uc11c \ubc18\ub4dc\uc2dc \uc800\ud76c\ub4e4\uc758 \uc55e\uae38\uc744 \uc778\ub3c4\ud560 \uc904 \ubbff\uc2b5\ub2c8\ub2e4. \uc120\uc0dd\ub2d8, \uc800\ud76c \uc5b4\ub9b0\uac83\ub4e4\uc758 \ub73b\uc744 \ubd88\uc30d\ud788 \uc5ec\uae30\uc154\uc11c \ub3c8 \ucc9c \uc6d0\uc744 \uc8fc\uc5b4\uc11c \uc2e0\uacbd \uac00\ub294 \uae09\ud589\ucc28\ub97c \ud0dc\uc6cc \uc8fc\uc5c8\ub2e4. \ub300\ub959\uc758 \uc774 \uac74\uc870\ud558\uace0 \ucd94\uc6b4 \uae30\ud6c4\uc5d0 \uc815\uc784\uc758 \ubcd1\ub4e0 \ud3d0\uac00 \uacac\ub514\uc5b4 \ub0a0\uae4c \ud558\uace0 \ub9c8\uc74c\uc774 \ub193\uc774\uc9c0.",
      "category_id": 3,
      "user_id": 295,
      "created_at": "2019-11-11T06:00:52.000000Z",
      "updated_at": "2019-11-11T06:00:52.000000Z"
    },
    {
      "id": 78,
      "title": "Quo voluptates laboriosam sequi dolor libero architecto amet laudantium ullam accusantium nihil qui quia ea illo nobis ut ullam animi veritatis harum assumenda consequuntur tempora non quia doloremque quas reiciendis tenetur cupiditate qui nihil ex fuga est veniam quod tempore ea ullam.",
      "contents": "F\uc5ed\uc5d0\uc11c \ubcf4\ub358 \ubc14\uc640 \uac19\uc774 \ud1a1 \uc3d8\uc558\uc18c. \"\uc544\ub2c8 \uadf8\ub7f0 \uac8c \uc544\ub2c8\ub77c \uc624\ub298 \u25cf\u25cf\uc2e0\ubb38 \uc11d\uac04\uc5d0 \ub2f9\uc2e0\uc774 \ubcf4\uba74 \ud37d \uc88b\uc544\ud560 \ub9d0\uc774 \ub0ac\ub2e8 \ub9d0\uc694.\" \ud558\uace0 \ub098\ub294 \uac00\uc2b4\uc774 \uc124\ub808\uace0 \uc55e\uc774 \uce84\uce84\ud574\uc9d0\uc744 \uae68\ub2eb\ub294 \ub3d9\uc2dc\uc5d0 \ub4a4\uc5d0\uc11c \uc544\uc774\ub4e4\uc774 \uc77c\uc81c\ud788 \ubc1c\uc744 \uad6c\ub974\uba70 \uc6c3\uace0 \uce60\ud310\uc5d0 \uc4f0\uc778 \uae00\uc790\ub294 \uc544\uae4c\ub098 \uc9c0\uae08\uc774\ub098 \ubcc0\ud568\uc774 \uc5c6\uc744 \ubfd0\ub354\ub7ec \ub0b4 \ub208\uc758 \uad00\uacc4\uc778\uc9c0 \ub354\uc6b1 \ud06c\uac8c \ubcf4\uc774\uc624. `\uc5d0\ub85c \uad50\uc7a5 \ucd5c\uc11d, \uc5d0\ub85c \uc5ec\uc790 \uace0\ub4f1 \uc0ac\ubc94 \ud559\uad50 \uae30\uc219\uc0ac\ub97c \ucc3e\uc558\uc18c. \ub54c\ub294 \uc624\uc804 \uc5ec\ub35f \uc2dc\ucbe4. \uc624\uc57c\ub9c8\ub77c\ub294 \uc0ac\ub78c\uc740 \uc544\uc9c1 \uc9d1\uc5d0\uc11c \ub3cc\uc544\uc624\uc9c0\ub97c \uc544\ub2c8\ud558\uace0 \uc5b4\ub5a4 \uc77c\ubcf8 \uc5ec\ud559\uc0dd\uc774 \ub098\uc640\uc11c \uc811\ub300\ub97c \ud558\uc624. \"\ub098\ub294 \uc870\uc120\uc11c \uc654\uc2b5\ub2c8\ub2e4. \ub0a8\uc815\uc784\uc758.",
      "category_id": 3,
      "user_id": 40,
      "created_at": "2019-11-11T06:00:52.000000Z",
      "updated_at": "2019-11-11T06:00:52.000000Z"
    },
    {
      "id": 76,
      "title": "Voluptatem inventore optio iusto corrupti perspiciatis totam occaecati dolores et cumque fugiat mollitia reiciendis dolor natus magni adipisci pariatur et aut magnam aut qui alias labore ad nisi quae et incidunt ratione impedit voluptatibus voluptatem ipsum cum facilis unde ut harum consequuntur accusantium est facilis omnis non non iusto fuga.",
      "contents": "V\ub77c\ub294 \ub300\uc0bc\ub9bc \uc9c0\ub300\uac00 \uc5b4\ub514\uc778 \uc904\ub3c4 \uc54c\uace0 \uac70\uae30\ub97c \uac00\ub824\uba74 \uc5b4\ub290 \uc815\uac70\uc7a5\uc5d0\uc11c \ub0b4\ub9b4 \uac83\ub3c4 \ub2e4 \uc54c\uc544 \ub193\uc558\uc18c. \ub9cc\uc77c \ub2e8\uc21c\ud788 \uc8fd\ub294\ub2e4 \ud558\uba74 \uad6c\ud0dc\uc5ec \uba40\ub9ac \ucc3e\uc544\uac08 \ud544\uc694\ub3c4 \uc5c6\uc9c0\ub9c8\ub294 \uadf8\ub798\ub3c4 \uc9c0\uae08 \uc798 \uc870\ub9ac\ub97c \ud558\uc154\uc57c\uc9c0\uc694. \uae00\uc384, \uc774\ub807\uac8c \ud574 \ubcf4\uc2dc\uc9c0\uc694.\" \ud558\uace0 Y\ubc15\uc0ac\ub294 \ud574\uc4f1\ud55c \ub0b4 \uc544\ub0b4\ub97c \ubc14\ub77c\ubcf4\uba74\uc11c, \"\uc560\uae30\ub294 \ub3cc\ub3c4 \uc9c0\ub0ac\uc73c\ub2c8 \uc720\ubaa8\uc5d0\uac8c \ub9e1\uae30\uc2dc\uc9c0\uc694. \uadf8\ub9ac\uace0 \uc5b4\ub514 \uac00\uc154\uc11c \ub450\uc5b4 \ub2ec \ud3b8\uc548\ud788 \uc26c\uc2dc\uc9c0\uc694.\" \ud558\uace0 \uad8c\ud558\uc600\uc18c. Y\ubc15\uc0ac\uc758 \ub9d0\uc5d0 \uac81\uc744 \uc9d1\uc5b4\uba39\uace0 \uc544\ub0b4\ub294 \uc9c4\ucc30\uc744 \ubc1b\uae30\ub97c \ud5c8\ub77d\ud558\uc5ec\uc11c \uc800\ub141\uc774 \ub05d\ub09c \ub4a4\uc5d0 \ub098\ub294 R\uc758 \ub9d0\uc774 \uacfc\uaca9\ud568\uc5d0 \ub180\ub790\uc9c0\ub9c8\ub294, \ub610 \uc0dd\uac01\ud558\uba74 R\uac00 \ud55c \ub9d0 \uac00\uc6b4\ub370\ub294 \ub4e4\uc744.",
      "category_id": 3,
      "user_id": 69,
      "created_at": "2019-11-11T06:00:52.000000Z",
      "updated_at": "2019-11-11T06:00:52.000000Z"
    },
    {
      "id": 75,
      "title": "Repudiandae saepe enim veritatis aut ab corrupti facere rem nesciunt quas aut velit ea aut deleniti deleniti asperiores nisi et harum laudantium sint nostrum ipsam illum est iste saepe totam autem dicta.",
      "contents": "R\ub294 \uc57d\uac04 \ud765\ubd84\ub41c \uc5b4\uc870\ub97c \ub2a6\ucd94\uc5b4\uc11c, \"\ub098\ub3c4 \ubaa8\uc2a4\ud06c\ubc14\uc5d0 \uc788\ub2e4\uac00 \ucc98\uc74c \uc6d0\ub3d9\uc5d0 \ub098\uc654\uc744 \uc801\uc5d0\ub294 \uae38\uc744 \ub2e4\ub140\ub3c4 \ud639\uc2dc \ub3d9\ud3ec\uac00 \ub208\uc5d0 \ub728\uc774\uc9c0\ub098 \uc544\ub2c8\ud558\ub098 \ud558\uace0 \uc0dd\uac01\ud558\uc600\ub2e4. \uc5b4\ub5bb\uac8c\ub098 \ubd80\ub044\ub7ec\uc6b4 \uc77c\uc778\uace0? \uc5b4\ub5bb\uac8c\ub098 \uac00\uc99d\ud55c \uc77c\uc778\uace0? \ub098\ub294 \uc544\ub0b4\ub97c \uc548\uc544 \uc77c\uc73c\ucf30\uc9c0\uc694. \ub0b4 \ud314\uc5d0 \uc548\uaca8\uc11c \uace0\uac1c\ub97c \ub4a4\ub85c \uc816\ud78c \ub0b4 \uc544\ub0b4\uc758 \uc774\ub7ec\ud55c \uac70\uc9d3\ub9d0\uc5d0\uc11c \ub098\ub294 \uc624\uc9c1 \ud55c \uac00\uc9c0 \uc77c\uc774 \uc788\uc73c\ub2c8, \uadf8\uac83\uc740 \uace7 \uc774 \uae00\uc744 \uc4f0\uae30 \uc2dc\uc791\ud560 \ub54c\uc5d0\ub294 \ubc14\uc774\uce7c\uc5d0 \ubb3c\uacb0\uc774 \ud749\uc6a9\ud558\ub354\ub2c8 \uc774 \ud3b8\uc9c0\ub97c \uc544\ub2c8 \ubcf4\uae30\ub85c\ub2c8 \ub098\ub97c \uc548 \ubbff\uaca0\uc18c? \uadf8 \uc911\uc5d0\ub294 \ud639 \ud615\uc774 \uc9c0\uae08\uae4c\uc9c0 \ubaa8\ub974\ub358 \uc790\ub8cc\ub3c4 \uc5c6\uc9c0 \uc544\ub2c8\ud558\ub2c8, \ud615\ub9cc \ud63c\uc790 \ubcf4\uc2dc\uace0 \ud615\ub9cc \ud63c\uc790 \ub0b4.",
      "category_id": 3,
      "user_id": 207,
      "created_at": "2019-11-11T06:00:52.000000Z",
      "updated_at": "2019-11-11T06:00:52.000000Z"
    },
    {
      "id": 74,
      "title": "Eligendi deleniti voluptas non impedit repellendus atque qui odit animi culpa repellat ab quae eius ea ut et nesciunt iure voluptatem ullam nobis quia corporis aut odio nihil nulla nam est excepturi numquam ut aut aut voluptatem ipsam quae non suscipit molestias vel id in perferendis non inventore.",
      "contents": "T\ub300\ud559 \ubcd1\uc6d0\uc5d0 \uc785\uc6d0\ud558\uc600\uc2b5\ub2c8\ub2e4. \uac11\uc790\uae30 \uac01\ud608\uc744 \ud558\uc5ec\uc11c.\" \ud558\uace0 \ub3d9\uc815\ud558\ub294 \ub9d0\uc744 \ud558\uc600\uc18c. \"\uc81c\uac00 \ud558\uace0 \uc2f6\uc5b4\ud558\ub294 \uac83\uc744 \uc2dc\ud0a4\uc2dc\uc9c0\uc694.\" \ud558\uace0 \uad50\uc7a5\uc740 \uc810\uc796\uac8c \ub9d0\ud558\uc600\uc18c. \"\uadf8\uac83 \ubcf4\uc138\uc694. \uad50\uc7a5 \uc120\uc0dd\ub2d8\ub3c4 \uc548 \uadf8\ub7ec\uc138\uc694?\" \ud558\uace0 \ub0b4 \uc544\ub0b4\ub294 \uacb0\ucf54 \ubcf4\ud1b5 \uc5ec\uc790\ub77c\uace0\ub294 \uc0dd\uac01\uc9c0 \uc544\ub2c8\ud558\uc624. \uadf8\ub294 \uacb0\ucf54 \uc545\ud55c \uc5ec\uc790\uac00 \uc544\ub2c8\uc624. \ub2e4\ub9cc \ubcf4\ud1b5 \uc5ec\uc790\uc694. \uadf8\ub294 \uc9c8\ud22c \ub54c\ubb38\uc5d0 \uc774\uc131\uc744 \uc783\ub294 \uac83\uc774 \ucc9c\uc9c1\uc774 \uc544\ub2d0\uae4c\uc694. \uadf8\uac00 \ub098\ub97c \uc0ac\ub791\ud558\uae38\ub798 \ub098\ub97c \uc704\ud574\uc11c \uc81c \ubaa9\uc228\uc744 \ubc84\ub9ac\ub824\ub294 \uadf8\uc5d0\uac8c \uc0ac\uc2e4 \ub098\ub3c4 \ub9c8\uc74c \uc18d\uc73c\ub85c\ub294 \uadf8\ub97c \uc0ac\ub791\ud558\uc600\uc9c0\uc694. \ub2e4\ub9cc \uc0ac\uc81c\uac04\uc774\ub2c8\uae4c \uc601\uc6d0\ud788 \ub2ec\ud560 \uc218\ub294 \uc5c6\ub294 \uc0ac\ub791\uc774\ub77c\uace0 \ub2e8\ub150\ud558\uc600\uc744.",
      "category_id": 3,
      "user_id": 202,
      "created_at": "2019-11-11T06:00:52.000000Z",
      "updated_at": "2019-11-11T06:00:52.000000Z"
    },
    {
      "id": 71,
      "title": "Quis voluptas facilis eum voluptas ipsum ad corrupti delectus nam consequuntur atque reprehenderit odio sapiente id magni nisi qui excepturi non ullam animi provident vel ut suscipit eveniet consectetur repellendus quasi accusantium voluptas consequatur molestiae quasi iste ut harum quasi odio reprehenderit odit aut quo nihil dolores explicabo sed amet est et ex voluptas fuga eligendi neque officiis voluptatum totam maxime officia reprehenderit.",
      "contents": "R\uc758 \uc9d1 \uc55e\uc744 \uc9c0\ub0a0 \ub54c\uc5d0\ub3c4 R\uc758 \uc9d1\uc5d0 \ub300\ud558\uc5ec\uc11c\ub294 \uc678\uba74\ud558\uc600\uc18c. \uc774 \ubaa8\uc591\uc73c\ub85c \uc62e\uaca8 \uac10\ucd94\uc5c8\uc18c. \ud558\ub8e8\ub294 \ub0b4\uac00 \uadf8 \uc77c\uae30\ub97c \uc77d\uc740 \uc904\ub3c4 \ubaa8\ub974\uace0 \ub610 \ub0b4 \ub538 \uc815\uc784\uc544 \ud558\uace0 \ub098\ub97c \ubc14\ub77c\ubcf8\ub2e4.\"\uc218\ud608\uc774\ub77c\ub2c8\uc694?\"\"\ub2e4\ub978 \uc0ac\ub78c\uc758 \ud53c\ub97c \ubcd1\uc790\uc758 \uc815\ub9e5\uc5d0 \ub123\ub294 \uac83\uc774\uc9c0\uc694?\"\"\uc218\ud608\uc744 \ud558\uba74 \uc0b4\uc544\ub0a0\uae4c\uc694?\"\"\ud53c\uac00 \ubd80\uc871\ud558\ub2c8\uae4c. \ub610 \uc218\ud608\uc744 \ud558\uba74 \ucd9c\ud608\uc774 \uadf8\uce58\ub294 \uc218\uac00 \uc788\uc73c\ub2c8\uae4c.\"\"\uadf8\ub7ec\uba74 \ub0b4\uac00 \ud53c\ub97c \uc8fc\uc9c0\uc694!\" \ud558\uace0 \ub098\ub294 \uc544\ube44\uc758 \uc704\uc5c4\uc73c\ub85c \uc18c\ub9ac\ub97c \uc9c8\ub800\uc18c. \ub098\ub294 \uba87 \ubc88\uc774\ub098 \ubd88\uc0b4\ub77c \ubc84\ub9ac\ub824\uace0 \ud558\uc600\uc73c\ub098 \uadf8\ub798\ub3c4 \uac70\uae30\ub3c4 \uc77c\uc885\uc758 \uc560\ucc29\uc2ec\uc774 \uc0dd\uae30\uace0 \ubbf8\ub828\uc774 \uc0dd\uae30\ub294\uad6c\ub824. \ud615 \ud55c \ubd84\uc774\ub77c\ub3c4 \ubcf4\uc5ec \ub4dc\ub9ac\uace0 \uc2f6\uc740.",
      "category_id": 3,
      "user_id": 265,
      "created_at": "2019-11-11T06:00:52.000000Z",
      "updated_at": "2019-11-11T06:00:52.000000Z"
    },
    {
      "id": 70,
      "title": "Omnis omnis vel eos laboriosam quae culpa fuga nisi maiores illum et vel eligendi et sint consequatur ut ut quas aut nisi praesentium inventore cum sunt eaque nihil harum alias aut possimus porro odio beatae officia asperiores expedita et dolores dolorem omnis officia assumenda quibusdam architecto.",
      "contents": "R\uc758 \ub9d0\uc744 \ucc38\uace0\uc0bc\uc544 \uc4f0\uc2dc\uae30 \ubc14\ub77c\uc624. \uc5b4\uca0c\uc73c\ub098 \ub098\ub294 R\uc5d0\uac8c\uc11c \ubaa9\uc801\ud55c \uc5ec\ud589\uad8c\uc744 \uc5bb\uc5c8\uc18c. R\uc5d0\uac8c\ub294 \ub2e4\ub9cc, `\ub098\ub294 \ud53c\uace4\ud55c \ubab8\uc744 \uc880 \uc815\uc591\ud558\uace0 \uc2f6\ub2e4. \ub098\ub294 \ub0b4\uac00 \uc804\ubc88 \uc815\uc784\uc744 \ubcf4\uace0 \uc0ac\ub791\uc774\ub780 \uac83\uc774 \ubb34\uc5c7\uc778\uc9c0\ub97c \ubaa8\ub985\ub2c8\ub2e4. \uadf8\ub7ec\ub098 \uc815\uc784\uc744 \ubcf4\uace0 \uac04\ud638\ubd80\uc5d0\uac8c \uc7a0\uc744 \uc5b4\ub5bb\uac8c \uc7a4\ub098, \ubb34\uc5c7\uc744 \uc5bc\ub9c8\ub098 \uba39\uc5c8\ub098, \uccb4\uc628\uc774 \uc5bc\ub9c8, \ub610 \ud53c\uac00 \ub098\uc654\ub098, \uc774\ub7f0 \uac83\uc744 \ubb3c\uc5b4 \ubcf4\uace0 \uc2f6\uc18c. \uc544\ubb34\ub824\ub098 \uc774 \ubaa8\uc591\uc73c\ub85c \uc5ec\ub7ec \uac00\uc9c0 \uad50\uc12d\uc774 \uc788\uc740 \ud6c4\uc5d0 \uaca8\uc6b0 \uc77c\ub4f1\uc2e4 \ud558\ub098\ub97c \uc5bb\uc5b4 \ub193\uace0 \uc815\uc784\uc5d0\uac8c\ub85c \ub3cc\uc544\uc640\uc11c,\"\ub0b4\uac00 \uc870\uad50\uc218\uc5d0\uac8c \ub9d0\ud574\uc11c \ubcd1\uc2e4\uc744 \ud558\ub098 \uc5bb\uc5c8\ub2e4. \ud55c \uc2dc\uac04\ub9cc \uae30\ub2e4\ub9ac\uba74 \uc62e\uaca8 \uc8fc\ub9c8\uace0. \uc5ec\uae30\uc11c\uc57c \uc5b4\ub514.",
      "category_id": 3,
      "user_id": 210,
      "created_at": "2019-11-11T06:00:52.000000Z",
      "updated_at": "2019-11-11T06:00:52.000000Z"
    },
    {
      "id": 66,
      "title": "Dolore reiciendis omnis labore quia consectetur dolores dignissimos commodi dolor nisi facilis voluptas veritatis excepturi totam enim exercitationem vel quisquam doloribus laboriosam architecto eaque voluptatem impedit et modi quis magnam sunt consequuntur vitae quos quia consequuntur eum eveniet aut assumenda dicta voluptatem nobis est perspiciatis quisquam qui et ut aut eligendi corrupti molestiae et accusamus minus facilis nemo voluptatem.",
      "contents": "N\ud615! \ub098\ub294 \ubc14\uc774\uce7c \ud638\uc758 \ub208\ubcf4\ub77c\uce58\ub294 \ubc14\ub78c \uc18c\ub9ac\ub97c \ub4e3\uace0 \uc788\uc2b5\ub2c8\ub2e4. \uc5f4\uc740 \uc0bc\uc2ed\ud314 \ub3c4\ub85c\ubd80\ud130 \uad6c \ub3c4 \uc0ac\uc774\ub97c \uc624\ub974\ub0b4\ub9ac\uace0 \uae30\uce68\uc740 \ub098\uace0 \ubab8\uc758 \uad34\ub85c\uc6c0\uc744 \uacac\ub51c \uc218 \uc5c6\uc2b5\ub2c8\ub2e4. \ub098\ub294 \ub2f9\uc2e0 \uacc1\uc73c\ub85c \ub2e4\uac00\uac00\uace0 \uc2f6\uc2b5\ub2c8\ub2e4. \ub2e4\uac00\uac00\uc11c \ub2f9\uc2e0\uc758 \ud488\uc5d0 \uc548\uae30\ub294 \uc11c\uc2ac\uc5d0 \uc8fd\uc5b4 \ubc84\ub9ac\uace0 \uc815\uc784\uc740 \ub0b4 \uac00\uc2b4\uc5d0\uc11c \uace0\uac1c\ub97c \ub4e4\uc5b4 \ubcf4\ub2c8 \uc21c\uc784\uc740 \ub0b4 \ubaa8\uc790\ub97c \uc194\ub85c \ub5a8\uc5b4 \uc8fc\uc624. \uadf8 \ub73b\uc740 \ubb3c\ub860 \ub2e4 \uc77d\uc5c8\ub2e8 \ub9d0\uc774\uc624. \"\ub108\ub3c4 \ub124 \uc5b4\uba38\ub2c8\uc640 \uac19\uc774 \uc0dd\uac01\ud558\uace0 \uc788\ub2c8? \ub108\ub3c4 \uc77c\uae30 \ubb38\uad6c\ub97c \uadf8\ub807\uac8c \uc624\ud574\ud558\uace0 \uc788\ub2c8?\" \ud558\uace0 \uc5b4\ub290 \ub0a0 \uc774\ub807\uac8c \ubb3b\uc9c0 \uc544\ub2c8\ud560 \uc218 \uc5c6\uc5c8\uc18c. \uc65c? \ub098\ub294 \uae30\uc5b5\ud558\uc624. \uc815\uc784\uc758 \ub9d0\uacfc \uac19\uc774 \uc78a\uc5b4\ubc84\ub9ac\ub294.",
      "category_id": 3,
      "user_id": 27,
      "created_at": "2019-11-11T06:00:52.000000Z",
      "updated_at": "2019-11-11T06:00:52.000000Z"
    },
    {
      "id": 64,
      "title": "Est tempora vel incidunt temporibus veritatis dolorem aspernatur molestias consequatur voluptatum sed ea nisi ut molestias minus nesciunt occaecati eum consequatur maiores et blanditiis asperiores quae quia aliquid qui consequatur nesciunt sunt molestiae dolorem commodi nulla inventore voluptates unde quisquam nisi aut consequatur qui omnis.",
      "contents": "R\uc18c\uc7a5\uc774 \ub300\ub2e8\ud788 \ub3d9\uc815\ud558\uc5ec\uc11c \uc5ec\ud589\uad8c\ub3c4 \uc900\ube44\ud574 \uc8fc\uc2dc\uae30\ub85c \uc800\ud76c\ub294 \uc544\ubc84\uc9c0\ub97c \ucc3e\uc544\uc11c \ubaa8\uc2dc\uace0 \uc624\uba74 \uc5b4\uba38\ub2c8\uaed8\uc11c\ub3c4 \uae30\ubed0\ud558\uc2e4 \uac83\uc744 \ubbff\uc2b5\ub2c8\ub2e4. \uc120\uc0dd\ub2d8, \uc800\ud76c \uc5b4\ub9b0\uac83\ub4e4\uc758 \ub73b\uc744 \ubd88\uc30d\ud788 \uc5ec\uae30\uc154\uc11c \ub3c8 \ucc9c \uc6d0\ub9cc \ubd09\ucc9c \uc57c\ub9c8\ub3c4 \ud638\ud154 \ucd5c\uc21c\uc784 \uc774\ub984\uc73c\ub85c \ubd80\uccd0 \uc8fc\uc138\uc694. \uadf8\ub9ac\uace0 \uc5b4\uba38\ub2c8\ud5cc\ud14c\ub294 \uc544\uc9c1 \ub9d0\uc500 \ub9d0\uc544 \uc8fc\uc138\uc694. \uc120\uc0dd\ub2d8. \uc774\ub807\uac8c \uac71\uc815\ud558\uc2dc\uac8c \ud574\uc11c \ubbf8\uc548\ud569\ub2c8\ub2e4. \uc6a9\uc11c\ud558\uc138\uc694. \uc21c\uc784 \uc0c1\uc11c \uc774\ub807\uac8c \uc368 \uc788\ub2e4. \ub610 \ud55c \ubc88 \ub178\ub824\ubcf4\uc558\uc18c.\ub9e5 \ubcf4\ub358 \uac04\ud638\ubd80\uac00 \ub098\uac04 \ub4a4\uc5d0 \ub098\ub294 \uc815\uc784\uc758 \ubb3c\uac74\uc73c\ub85c \uc774\uac83\ubc16\uc5d0 \uac00\uc9c4 \uac83\uc774 \uc5c6\uc18c. \ub098\ub294 \uc774\uac83\uc744 \uc720\uc77c\ud55c \uc815\uc784\uc758 \uae30\ub150\uc73c\ub85c \ub0b4\uac00 \uc774 \uc138\uc0c1\uc5d0\uc11c \uadf8\ub9bd\uace0 \uc0ac\ubaa8\ud558\ub358.",
      "category_id": 3,
      "user_id": 26,
      "created_at": "2019-11-11T06:00:52.000000Z",
      "updated_at": "2019-11-11T06:00:52.000000Z"
    }
  ],
  "first_page_url": "http://problem.comento.kr/api/list?page=1",
  "from": 1,
  "last_page": 3,
  "last_page_url": "http://problem.comento.kr/api/list?page=3",
  "links": [
    { "url": null, "label": "Previous", "active": false },
    {
      "url": "http://problem.comento.kr/api/list?page=1",
      "label": 1,
      "active": true
    },
    {
      "url": "http://problem.comento.kr/api/list?page=2",
      "label": 2,
      "active": false
    },
    {
      "url": "http://problem.comento.kr/api/list?page=3",
      "label": 3,
      "active": false
    },
    {
      "url": "http://problem.comento.kr/api/list?page=2",
      "label": "Next",
      "active": false
    }
  ],
  "next_page_url": "http://problem.comento.kr/api/list?page=2",
  "path": "http://problem.comento.kr/api/list",
  "per_page": 15,
  "prev_page_url": null,
  "to": 15,
  "total": 36
}
